<?xml version="1.0" standalone="no"?>
<!DOCTYPE svg PUBLIC "-//W3C//DTD SVG 1.1//EN" "http://www.w3.org/Graphics/SVG/1.1/DTD/svg11.dtd" >
<svg xmlns="http://www.w3.org/2000/svg">
<metadata>Generated by IcoMoon</metadata>
<defs>
<font id="icomoon" horiz-adv-x="1024">
<font-face units-per-em="1024" ascent="960" descent="-64" />
<missing-glyph horiz-adv-x="1024" />
<glyph unicode="&#x20;" horiz-adv-x="512" d="" />
<glyph unicode="&#xf002;" glyph-name="search" horiz-adv-x="951" d="M658.286 475.428q0 105.714-75.143 180.857t-180.857 75.143-180.857-75.143-75.143-180.857 75.143-180.857 180.857-75.143 180.857 75.143 75.143 180.857zM950.857 0q0-29.714-21.714-51.429t-51.429-21.714q-30.857 0-51.429 21.714l-196 195.429q-102.286-70.857-228-70.857-81.714 0-156.286 31.714t-128.571 85.714-85.714 128.571-31.714 156.286 31.714 156.286 85.714 128.571 128.571 85.714 156.286 31.714 156.286-31.714 128.571-85.714 85.714-128.571 31.714-156.286q0-125.714-70.857-228l196-196q21.143-21.143 21.143-51.429z" />
<glyph unicode="&#xf081;" glyph-name="twitter-square" d="M731.429 602.286q-32-14.286-69.143-19.429 38.857 22.857 53.143 66.857-37.143-21.714-76.571-29.143-34.857 37.714-87.429 37.714-49.714 0-84.857-35.143t-35.143-84.857q0-16.571 2.857-27.429-73.714 4-138.286 37.143t-109.714 88.571q-16.571-28.571-16.571-60.571 0-65.143 52-100-26.857 0.571-57.143 14.857v-1.143q0-42.857 28.571-76.286t70.286-41.429q-16.571-4.571-29.143-4.571-7.429 0-22.286 2.286 12-36 42.571-59.429t69.429-24q-66.286-51.429-149.143-51.429-14.857 0-28.571 1.714 84.571-53.714 184-53.714 64 0 120 20.286t96 54.286 68.857 78.286 42.857 92.571 14 96.286q0 10.286-0.571 15.429 36 25.714 60 62.286zM877.714 713.143v-548.571q0-68-48.286-116.286t-116.286-48.286h-548.571q-68 0-116.286 48.286t-48.286 116.286v548.571q0 68 48.286 116.286t116.286 48.286h548.571q68 0 116.286-48.286t48.286-116.286z" />
<glyph unicode="&#xf082;" glyph-name="facebook-square" d="M713.143 877.714q68 0 116.286-48.286t48.286-116.286v-548.571q0-68-48.286-116.286t-116.286-48.286h-107.429v340h113.714l17.143 132.571h-130.857v84.571q0 32 13.429 48t52.286 16l69.714 0.571v118.286q-36 5.143-101.714 5.143-77.714 0-124.286-45.714t-46.571-129.143v-97.714h-114.286v-132.571h114.286v-340h-304q-68 0-116.286 48.286t-48.286 116.286v548.571q0 68 48.286 116.286t116.286 48.286h548.571z" />
<glyph unicode="&#xf08c;" glyph-name="linkedin-square" d="M135.429 142.857h132v396.571h-132v-396.571zM276 661.714q-0.571 29.714-20.571 49.143t-53.143 19.429-54-19.429-20.857-49.143q0-29.143 20.286-48.857t52.857-19.714h0.571q33.714 0 54.286 19.714t20.571 48.857zM610.286 142.857h132v227.429q0 88-41.714 133.143t-110.286 45.143q-77.714 0-119.429-66.857h1.143v57.714h-132q1.714-37.714 0-396.571h132v221.714q0 21.714 4 32 8.571 20 25.714 34t42.286 14q66.286 0 66.286-89.714v-212zM877.714 713.143v-548.571q0-68-48.286-116.286t-116.286-48.286h-548.571q-68 0-116.286 48.286t-48.286 116.286v548.571q0 68 48.286 116.286t116.286 48.286h548.571q68 0 116.286-48.286t48.286-116.286z" />
<glyph unicode="&#xf0d3;" glyph-name="pinterest-square" d="M713.143 877.714q68 0 116.286-48.286t48.286-116.286v-548.571q0-68-48.286-116.286t-116.286-48.286h-414.286q48.571 69.714 61.714 120 5.143 19.429 30.286 119.429 12-22.286 42-38.286t64.286-16q103.429 0 168.857 84.286t65.429 213.429q0 48-20 92.857t-55.143 79.429-87.143 55.429-112.571 20.857q-59.429 0-111.143-16.286t-87.429-43.714-61.429-62.571-38-73.143-12.286-75.714q0-58.286 22.571-102.857t66.571-62.857q7.429-2.857 13.429 0t8.286 10.857q5.714 25.143 8.571 34.857 3.429 13.143-6.286 24-28.571 35.429-28.571 85.714 0 85.714 59.143 146.571t154.571 60.857q85.143 0 132.857-46.286t47.714-120q0-96-38.571-163.429t-99.143-67.429q-34.286 0-55.429 24.857t-13.143 59.143q4.571 19.429 15.143 52.857t16.857 58.286 6.286 42.571q0 28-15.143 46.571t-43.143 18.571q-34.857 0-59.143-32.286t-24.286-79.714q0-41.143 13.714-69.143l-56-236.571q-13.714-57.143-4-145.143h-104.571q-68 0-116.286 48.286t-48.286 116.286v548.571q0 68 48.286 116.286t116.286 48.286h548.571z" />
<glyph unicode="&#xf0d4;" glyph-name="google-plus-square" d="M473.714 254.857q0-43.429-33.429-64.286t-79.714-20.857q-23.429 0-46 5.429t-43.143 16.286-33.143 30.286-12.571 44.571q0 26.286 14.286 45.714t37.429 29.429 46.857 14.286 48.286 4.286q11.429 0 17.714-1.143 1.143-0.571 13.143-9.429t14.857-10.857 13.143-10.286 14-12.571 10.857-12.857 9.714-14.857 5.143-15.143 2.571-18zM431.429 566.286q0-34.286-18.857-56.857t-52.571-22.571q-30.286 0-53.143 24.286t-32.857 55.143-10 60.571q0 34.857 18.286 59.429t52.571 24.571q30.286 0 53.429-25.714t33.143-57.714 10-61.143zM492 713.143l50.286 36.571h-151.429q-48.571 0-92-18.286t-72.857-56-29.429-87.429q0-53.143 36.857-88.286t90.571-35.143q12.571 0 24.571 1.714-7.429-16.571-7.429-30.857 0-25.143 22.857-53.714-100-6.857-146.857-36-26.857-16.571-43.143-41.714t-16.286-54.286q0-24.571 10.571-44.286t27.714-32.286 39.429-21.143 44.286-12 43.714-3.429q34.286 0 68.857 8.857t64.857 26.286 49.143 47.143 18.857 66.857q0 28-11.429 51.143t-28 38-33.143 27.143-28 25.143-11.429 25.429 8.857 24.286 21.429 22.571 25.143 24 21.429 34 8.857 47.143q0 34.286-12.857 56.857t-41.429 51.714h47.429zM658.286 457.143h73.143v36.571h-73.143v73.143h-36.571v-73.143h-73.143v-36.571h73.143v-91.429h36.571v91.429zM877.714 713.143v-548.571q0-68-48.286-116.286t-116.286-48.286h-548.571q-68 0-116.286 48.286t-48.286 116.286v548.571q0 68 48.286 116.286t116.286 48.286h548.571q68 0 116.286-48.286t48.286-116.286z" />
<glyph unicode="&#xf166;" glyph-name="youtube-square" d="M525.143 206.286v89.714q0 28.571-16.571 28.571-9.714 0-18.857-9.143v-128q9.143-9.143 18.857-9.143 16.571 0 16.571 28zM630.286 276h37.714v19.429q0 29.143-18.857 29.143t-18.857-29.143v-19.429zM304 428v-40h-45.714v-241.714h-42.286v241.714h-44.571v40h132.571zM418.857 356v-209.714h-38.286v22.857q-22.286-25.714-43.429-25.714-18.857 0-24 16-3.429 9.143-3.429 30.857v165.714h37.714v-154.286q0-13.714 0.571-14.857 0.571-8.571 8.571-8.571 11.429 0 24 17.714v160h38.286zM562.857 292.571v-83.429q0-29.714-4-41.714-6.857-24-30.286-24-20 0-38.857 23.429v-20.571h-38.286v281.714h38.286v-92q18.286 22.857 38.857 22.857 23.429 0 30.286-24 4-12 4-42.286zM706.286 218.857v-5.143q0-16.571-1.143-24.571-1.714-12.571-8.571-22.857-15.429-22.857-45.714-22.857-29.714 0-46.286 21.714-12 15.429-12 49.143v73.714q0 33.714 11.429 49.143 16.571 21.714 45.714 21.714t44.571-21.714q12-16 12-49.143v-43.429h-76v-37.143q0-29.143 19.429-29.143 13.714 0 17.143 14.857 0 0.571 0.286 4t0.286 9.429v12.286h38.857zM448.571 689.714v-89.143q0-29.143-18.286-29.143t-18.286 29.143v89.143q0 29.714 18.286 29.714t18.286-29.714zM753.143 282.286q0 101.143-10.857 148.571-5.714 25.143-24.571 42t-43.429 19.714q-77.714 8.571-235.429 8.571-157.143 0-234.857-8.571-25.143-2.857-43.714-19.714t-24.286-42q-11.429-49.714-11.429-148.571 0-100.571 11.429-148.571 5.714-24.571 24.286-41.714t43.143-20q78.286-8.571 235.429-8.571t235.429 8.571q24.571 2.857 43.143 20t24.286 41.714q11.429 48 11.429 148.571zM321.714 654.286l51.429 169.143h-42.857l-29.143-111.429-30.286 111.429h-44.571l13.714-39.429t13.143-39.429q20-58.857 26.286-90.286v-114.857h42.286v114.857zM486.857 608v74.286q0 33.143-12 49.714-16.571 21.714-44.571 21.714-29.143 0-44.571-21.714-12-16.571-12-49.714v-74.286q0-33.143 12-49.714 15.429-21.714 44.571-21.714 28 0 44.571 21.714 12 15.429 12 49.714zM590.286 539.428h38.286v211.429h-38.286v-161.714q-12.571-17.714-24-17.714-8.571 0-9.143 9.143-0.571 1.143-0.571 14.857v155.429h-38.286v-167.429q0-21.143 3.429-31.429 6.286-15.429 24.571-15.429 20.571 0 44 25.714v-22.857zM877.714 713.143v-548.571q0-68-48.286-116.286t-116.286-48.286h-548.571q-68 0-116.286 48.286t-48.286 116.286v548.571q0 68 48.286 116.286t116.286 48.286h548.571q68 0 116.286-48.286t48.286-116.286z" />
<glyph unicode="&#xf16d;" glyph-name="instagram" d="M778.286 136v370.286h-77.143q11.429-36 11.429-74.857 0-72-36.571-132.857t-99.429-96.286-137.143-35.429q-112.571 0-192.571 77.429t-80 187.143q0 38.857 11.429 74.857h-80.571v-370.286q0-14.857 10-24.857t24.857-10h610.857q14.286 0 24.571 10t10.286 24.857zM616 440.571q0 70.857-51.714 120.857t-124.857 50q-72.571 0-124.286-50t-51.714-120.857 51.714-120.857 124.286-50q73.143 0 124.857 50t51.714 120.857zM778.286 646.286v94.286q0 16-11.429 27.714t-28 11.714h-99.429q-16.571 0-28-11.714t-11.429-27.714v-94.286q0-16.571 11.429-28t28-11.429h99.429q16.571 0 28 11.429t11.429 28zM877.714 765.143v-652.571q0-46.286-33.143-79.429t-79.429-33.143h-652.571q-46.286 0-79.429 33.143t-33.143 79.429v652.571q0 46.286 33.143 79.429t79.429 33.143h652.571q46.286 0 79.429-33.143t33.143-79.429z" />
</font></defs></svg>