{
    "key": "group_5f5946b984e1e",
    "title": "Careers",
    "fields": [
        {
            "key": "field_5f5946ccd2418",
            "label": "Careers Openings Headline",
            "name": "career_opening_headline",
            "type": "text",
            "instructions": "",
            "required": 0,
            "conditional_logic": 0,
            "wrapper": {
                "width": "",
                "class": "",
                "id": ""
            },
            "default_value": "",
            "placeholder": "",
            "prepend": "",
            "append": "",
            "maxlength": ""
        },
        {
            "key": "field_5f5bbcb32329c",
            "label": "Add New Jobs",
            "name": "",
            "type": "message",
            "instructions": "",
            "required": 0,
            "conditional_logic": 0,
            "wrapper": {
                "width": "",
                "class": "",
                "id": ""
            },
            "message": "Jobs are their own post type. You can add a new job by clicking +New at the top of the page and selecting Jobs from the drop down. \r\n\r\nOr you can click on this link to create a new job post:\r\n<a href=\"\/wp-admin\/post-new.php?post_type=jobs\">Click Here To Create New Job Post<\/a>",
            "new_lines": "wpautop",
            "esc_html": 0
        },
        {
            "key": "field_5f5bd5e2fd0eb",
            "label": "View Career Button Text",
            "name": "view_career_button_text",
            "type": "text",
            "instructions": "",
            "required": 0,
            "conditional_logic": 0,
            "wrapper": {
                "width": "",
                "class": "",
                "id": ""
            },
            "default_value": "",
            "placeholder": "",
            "prepend": "",
            "append": "",
            "maxlength": ""
        },
        {
            "key": "field_5f5bc69fac476",
            "label": "No Current Jobs Open Text",
            "name": "no_current_jobs_open_text",
            "type": "text",
            "instructions": "Please enter the text here to display when no jobs are currently available.",
            "required": 0,
            "conditional_logic": 0,
            "wrapper": {
                "width": "",
                "class": "",
                "id": ""
            },
            "default_value": "",
            "placeholder": "",
            "prepend": "",
            "append": "",
            "maxlength": ""
        }
    ],
    "location": [
        [
            {
                "param": "page_template",
                "operator": "==",
                "value": "tpl-page-careers.php"
            }
        ]
    ],
    "menu_order": 0,
    "position": "normal",
    "style": "default",
    "label_placement": "top",
    "instruction_placement": "label",
    "hide_on_screen": [
        "the_content",
        "excerpt",
        "discussion",
        "comments"
    ],
    "active": true,
    "description": "",
    "modified": 1599856581
}