{
    "key": "group_5e04fe720ff9b",
    "title": "Fields: Jobs",
    "fields": [
        {
            "key": "field_5e04fe7c7b324",
            "label": "Summary",
            "name": "summary",
            "type": "wysiwyg",
            "instructions": "Add your Job summary",
            "required": 0,
            "conditional_logic": 0,
            "wrapper": {
                "width": "",
                "class": "",
                "id": ""
            },
            "default_value": "",
            "tabs": "all",
            "toolbar": "full",
            "media_upload": 1,
            "delay": 0
        }
    ],
    "location": [
        [
            {
                "param": "post_type",
                "operator": "==",
                "value": "jobs"
            }
        ]
    ],
    "menu_order": 0,
    "position": "normal",
    "style": "default",
    "label_placement": "top",
    "instruction_placement": "label",
    "hide_on_screen": [
        "the_content"
    ],
    "active": true,
    "description": "",
    "modified": 1598035767
}